<?xml version="1.0" encoding="utf-8"?>
<!-- Generator: Adobe Illustrator 17.1.0, SVG Export Plug-In . SVG Version: 6.00 Build 0)  -->
<!DOCTYPE svg PUBLIC "-//W3C//DTD SVG 1.1//EN" "http://www.w3.org/Graphics/SVG/1.1/DTD/svg11.dtd">
<svg version="1.1" xmlns="http://www.w3.org/2000/svg" xmlns:xlink="http://www.w3.org/1999/xlink" x="0px" y="0px"
	 viewBox="0 0 24 24" enable-background="new 0 0 24 24" xml:space="preserve">
<path d="M2,11.9l1.7-1.6c2.1,1,3.9,2.1,5.6,3.4C13.4,8.8,16.2,6.3,21.4,3L22,4.3c-4.3,3.8-7.4,8-11.9,16.2C7.5,17.4,4.9,14.6,2,11.9
	L2,11.9z"/>
</svg>
